…
``` r
homicide <- homicide %>% 
  mutate(city_state = paste(city, state, sep =", ")) 

unresolved = homicide %>% 
  group_by(city_state) %>% 
  summarize( 
    total_homicide = n(),
    unsolved = sum(disposition %in% c("Closed without arrest", "Open/No arrest"))) %>%
  filter(city_state != "Tulsa, AL")

unresolved
```

    ## # A tibble: 50 × 3
    ##    city_state      total_homicide unsolved
    ##    <chr>                    <int>    <int>
    ##  1 Albuquerque, NM            378      146
    ##  2 Atlanta, GA                973      373
    ##  3 Baltimore, MD             2827     1825
    ##  4 Baton Rouge, LA            424      196
    ##  5 Birmingham, AL             800      347
    ##  6 Boston, MA                 614      310
    ##  7 Buffalo, NY                521      319
    ##  8 Charlotte, NC              687      206
    ##  9 Chicago, IL               5535     4073
    ## 10 Cincinnati, OH             694      309
    ## # … with 40 more rows
…
tidy
```

    ## # A tibble: 160 × 4
    ##    group subject  week   obs
    ##    <chr>   <int> <dbl> <dbl>
    ##  1 con         1     1  0.2 
    ##  2 con         1     2 -1.31
    ##  3 con         1     3  0.66
    ##  4 con         1     4  1.96
    ##  5 con         1     5  0.23
    ##  6 con         1     6  1.09
    ##  7 con         1     7  0.05
    ##  8 con         1     8  1.94
    ##  9 con         2     1  1.13
    ## 10 con         2     2 -0.88
    ## # … with 150 more rows
…
